<?xml version="1.0" encoding="UTF-8" standalone="no"?>
<svg
   height="16.845949"
   viewBox="0 0 18.412051 16.845949"
   width="18.41205"
   version="1.1"
   id="svg4"
   sodipodi:docname="menu.svg"
   inkscape:version="1.2.2 (b0a8486541, 2022-12-01)"
   xmlns:inkscape="http://www.inkscape.org/namespaces/inkscape"
   xmlns:sodipodi="http://sodipodi.sourceforge.net/DTD/sodipodi-0.dtd"
   xmlns="http://www.w3.org/2000/svg"
   xmlns:svg="http://www.w3.org/2000/svg">
  <defs
     id="defs8" />
  <sodipodi:namedview
     id="namedview6"
     pagecolor="#ffffff"
     bordercolor="#666666"
     borderopacity="1.0"
     inkscape:showpageshadow="2"
     inkscape:pageopacity="0.0"
     inkscape:pagecheckerboard="0"
     inkscape:deskcolor="#d1d1d1"
     showgrid="false"
     inkscape:zoom="26.375"
     inkscape:cx="-2.7109005"
     inkscape:cy="10.654028"
     inkscape:window-width="1920"
     inkscape:window-height="1029"
     inkscape:window-x="0"
     inkscape:window-y="27"
     inkscape:window-maximized="1"
     inkscape:current-layer="svg4" />
  <rect
     style="fill:#000000;fill-opacity:1;stroke:none;stroke-width:7.40084"
     id="rect339"
     width="18.41205"
     height="16.845949"
     x="0"
     y="0" />
  <path
     d="m 5.0061871,4.4726528 v 1 h 8.0000009 v -1 z m 0,2.97 v 1 h 8.0000009 v -1 z m 0,3.0000002 v 0.999999 h 8.0000009 v -0.999999 z"
     id="path2"
     style="fill:#ffffff;fill-opacity:1" />
</svg>
