<?xml version="1.0" encoding="UTF-8" standalone="no"?>
<svg
   xmlns:dc="http://purl.org/dc/elements/1.1/"
   xmlns:cc="http://creativecommons.org/ns#"
   xmlns:rdf="http://www.w3.org/1999/02/22-rdf-syntax-ns#"
   xmlns:svg="http://www.w3.org/2000/svg"
   xmlns="http://www.w3.org/2000/svg"
   xmlns:sodipodi="http://sodipodi.sourceforge.net/DTD/sodipodi-0.dtd"
   xmlns:inkscape="http://www.inkscape.org/namespaces/inkscape"
   width="7.9585085mm"
   height="36.121414mm"
   viewBox="0 0 7.9585085 36.121415"
   version="1.1"
   id="svg3343"
   inkscape:version="1.0.1 (3bc2e813f5, 2020-09-07)"
   sodipodi:docname="txistu.svg">
  <defs
     id="defs3337" />
  <sodipodi:namedview
     id="base"
     pagecolor="#ffffff"
     bordercolor="#666666"
     borderopacity="1.0"
     inkscape:pageopacity="0.0"
     inkscape:pageshadow="2"
     inkscape:zoom="1.979899"
     inkscape:cx="-83.738377"
     inkscape:cy="139.28977"
     inkscape:document-units="mm"
     inkscape:current-layer="layer1"
     inkscape:document-rotation="0"
     showgrid="false"
     inkscape:window-width="1920"
     inkscape:window-height="1025"
     inkscape:window-x="0"
     inkscape:window-y="31"
     inkscape:window-maximized="1">
    <sodipodi:guide
       position="-10.879413,29.018122"
       orientation="0,119.10384"
       id="guide860" />
    <sodipodi:guide
       position="20.633477,29.018122"
       orientation="83.629934,0"
       id="guide862" />
    <sodipodi:guide
       position="20.633477,6.8910352"
       orientation="0,-119.10384"
       id="guide864" />
    <sodipodi:guide
       position="-10.879413,6.8910352"
       orientation="-83.629934,0"
       id="guide866" />
  </sodipodi:namedview>
  <metadata
     id="metadata3340">
    <rdf:RDF>
      <cc:Work
         rdf:about="">
        <dc:format>image/svg+xml</dc:format>
        <dc:type
           rdf:resource="http://purl.org/dc/dcmitype/StillImage" />
        <dc:title />
      </cc:Work>
    </rdf:RDF>
  </metadata>
  <g
     inkscape:label="Capa 1"
     inkscape:groupmode="layer"
     id="layer1"
     transform="translate(-7.2182086,-56.67245)">
    <ellipse
       transform="matrix(0.09484164,-0.99549237,0.99995215,0.00978235,0,0)"
       class="st12"
       cx="-90.898186"
       cy="16.97817"
       rx="0.80703539"
       ry="0.81618178"
       id="ellipse199"
       style="fill:none;stroke:#ffeded;stroke-width:0.634172;stroke-linecap:round;stroke-linejoin:round;stroke-miterlimit:10;stroke-opacity:1" />
    <polyline
       class="st12"
       points="126.08,53.96 24.52,128.88 19.19,121.67 120.75,46.75    "
       id="polyline201"
       transform="matrix(0.16827952,-0.20438957,0.18693675,0.15391014,-16.703722,77.649734)"
       style="fill:none;stroke:#ffffff;stroke-width:2.5;stroke-linecap:round;stroke-linejoin:round;stroke-miterlimit:10;stroke-opacity:1" />
    <path
       class="st12"
       d="m 14.372503,60.591211 c -0.135319,1.421525 0.0013,-0.0091 -0.135879,1.410775 -1.004393,6.035261 -2.162753,6.021204 -1.861676,-0.01698 0.133634,-1.41948 -0.0013,0.0091 0.135877,-1.410776"
       id="path203"
       style="fill:none;stroke:#ffffff;stroke-width:0.632989;stroke-linecap:round;stroke-linejoin:round;stroke-miterlimit:10;stroke-opacity:1" />
    <polyline
       class="st12"
       points="132.14,48.53 135.6,45.97 131.19,40 127.73,42.56    "
       id="polyline205"
       transform="matrix(0.16827952,-0.20438957,0.18693675,0.15391014,-16.703722,77.649734)"
       style="fill:none;stroke:#ffffff;stroke-width:2.5;stroke-linecap:round;stroke-linejoin:round;stroke-miterlimit:10;stroke-opacity:1" />
    <rect
       x="18.002768"
       y="58.27626"
       transform="matrix(0.99995215,0.00978235,-0.09484164,0.99549237,0,0)"
       class="st12"
       width="2.383451"
       height="1.9893163"
       id="rect207"
       style="fill:none;stroke:#ffffff;stroke-width:0.634172;stroke-linecap:round;stroke-linejoin:round;stroke-miterlimit:10;stroke-opacity:1" />
    <path
       class="st12"
       d="m 10.101307,82.301191 c 0.902977,0.05757 1.689868,0.01613 2.533025,0.02445"
       id="path209"
       style="fill:none;stroke:#ffffff;stroke-width:0.632989;stroke-linecap:round;stroke-linejoin:round;stroke-miterlimit:10;stroke-opacity:1" />
    <path
       class="st12"
       d="m 9.6287209,87.279089 c 0.9407391,0.09552 1.6915511,0.01409 2.5330251,0.02445"
       id="path213"
       style="fill:none;stroke:#ffffff;stroke-width:0.632989;stroke-linecap:round;stroke-linejoin:round;stroke-miterlimit:10;stroke-opacity:1" />
    <ellipse
       transform="matrix(0.09484164,-0.99549237,0.99995215,0.00978235,0,0)"
       class="st11"
       cx="-88.520348"
       cy="19.194784"
       rx="0.51403522"
       ry="0.52075398"
       id="ellipse217"
       style="fill:#ffffff;stroke-width:0.253668;fill-opacity:1" />
    <ellipse
       transform="matrix(0.09484164,-0.99549237,0.99995215,0.00978235,0,0)"
       class="st11"
       cx="-86.338615"
       cy="19.194777"
       rx="0.51403522"
       ry="0.52075398"
       id="ellipse221"
       style="fill:#ffe4e4;stroke-width:0.253668;fill-opacity:1" />
    <path
       class="st11"
       d="m 12.480388,60.230238 c 0.650791,-0.07805 1.350743,-0.07103 1.985252,0.01927 -0.0047,0.04759 -0.0092,0.09876 -0.01553,0.148394 -0.537327,0.229763 -1.67774,0.216764 -1.985252,-0.01927 0.0064,-0.04964 0.01086,-0.100802 0.01553,-0.148393 z"
       id="path225"
       style="fill:#ffffff;stroke-width:0.253195;fill-opacity:1" />
    <path
       class="st12"
       d="m 11.522613,67.401284 c 0.738845,-0.07071 1.69155,0.01408 2.533024,0.02445"
       id="path227"
       style="fill:none;stroke:#ffffff;stroke-width:0.632989;stroke-linecap:round;stroke-linejoin:round;stroke-miterlimit:10;stroke-opacity:1" />
    <path
       class="st12"
       d="m 11.025513,72.595626 c 0.785207,-0.03939 1.689867,0.01613 2.533026,0.02445"
       id="path231"
       style="fill:none;stroke:#ffffff;stroke-width:0.632989;stroke-linecap:round;stroke-linejoin:round;stroke-miterlimit:10;stroke-opacity:1" />
    <line
       class="st12"
       x1="10.564343"
       y1="77.449173"
       x2="13.09737"
       y2="77.473625"
       id="line235"
       style="fill:none;stroke:#ffffff;stroke-width:0.632989;stroke-linecap:round;stroke-linejoin:round;stroke-miterlimit:10;stroke-opacity:1" />
    <path
       class="st12"
       d="m 9.3039984,90.664033 c 0.9407366,0.09551 1.6915496,0.01408 2.5330236,0.02445"
       id="path237"
       style="fill:none;stroke:#ffffff;stroke-width:0.632989;stroke-linecap:round;stroke-linejoin:round;stroke-miterlimit:10;stroke-opacity:1" />
  </g>
</svg>
